<?xml version="1.0" encoding="utf-8"?>
<!-- Generator: Adobe Illustrator 20.1.0, SVG Export Plug-In . SVG Version: 6.00 Build 0)  -->
<svg version="1.1" id="brew_logo" xmlns="http://www.w3.org/2000/svg" xmlns:xlink="http://www.w3.org/1999/xlink" x="0px" y="0px"
	 width="150px" height="38.15px" viewBox="0 0 97.5 24.8" style="enable-background:new 0 0 97.5 24.8;" xml:space="preserve">
<style type="text/css">
	.st0{fill:none;stroke:#3D58A7;stroke-miterlimit:10;}
	.st1{font-family:'BritannicBold';}
	.st2{font-size:30px;}
</style>
<text transform="matrix(1 0 0 1 0 22.1142)" class="st0 st1 st2">BREW</text>
	<defs>
	<style>
		#brew_logo {
			stroke-dasharray: 1000px;
			stroke-dashoffset:0;
			-webkit-animation: dash 5s linear forwards;
			-o-animation: dash 5s linear forwards;
			-moz-animation: dash 5s linear forwards;
			animation: dash 4s linear forwards;
		}

		@-webkit-keyframes dash{
			from{stroke-dashoffset: 1000;}
			to{stroke-dashoffset: 0;}
		}
	</style>
	</defs>
</svg>
